[
    {
        "category": "电子公文",
        "subject": "待阅公文",
        "items": [
            {
                "subtitle": "关于发布新闻门户事宜",
                "url": "http://127.0.0.1:8080/news/1",
                "update_at": "2014-09-30 10:00:00"
            }
        ]
    }
]
